// Jest Snapshot v1, https://goo.gl/fbAQLP

exports[`MemberAuthors.vue Displays the data on the table 1`] = `
<div style="position: relative;">
  <div class="v-data-table theme--light">
    <div class="v-data-table__wrapper">
      <table>
        <colgroup>
          <col class="">
          <col class="">
          <col class="">
          <col class="">
          <col class="">
          <col class="">
          <col class="">
          <col class="">
          <col class="">
          <col class="">
          <col class="">
        </colgroup>
        <thead class="v-data-table-header">
          <tr>
            <th role="columnheader" scope="col" aria-label="CMD ID: Not sorted. Activate to sort ascending." aria-sort="none" class="text-start px-1 sortable"><span>CMD ID</span><i aria-hidden="true" class="v-icon notranslate v-data-table-header__icon mdi mdi-arrow-up theme--light" style="font-size: 18px;"></i></th>
            <th role="columnheader" scope="col" aria-label="Last Name: Not sorted. Activate to sort ascending." aria-sort="none" class="text-start px-1 sortable"><span>Last Name</span><i aria-hidden="true" class="v-icon notranslate v-data-table-header__icon mdi mdi-arrow-up theme--light" style="font-size: 18px;"></i></th>
            <th role="columnheader" scope="col" aria-label="First Name: Not sorted. Activate to sort ascending." aria-sort="none" class="text-start px-1 sortable"><span>First Name</span><i aria-hidden="true" class="v-icon notranslate v-data-table-header__icon mdi mdi-arrow-up theme--light" style="font-size: 18px;"></i></th>
            <th role="columnheader" scope="col" aria-label="Institue: Not sorted. Activate to sort ascending." aria-sort="none" class="text-start px-1 sortable"><span>Institue</span><i aria-hidden="true" class="v-icon notranslate v-data-table-header__icon mdi mdi-arrow-up theme--light" style="font-size: 18px;"></i></th>
            <th role="columnheader" scope="col" aria-label="MO 2020: Not sorted. Activate to sort ascending." aria-sort="none" class="text-start px-1 sortable"><span>MO 2020</span><i aria-hidden="true" class="v-icon notranslate v-data-table-header__icon mdi mdi-arrow-up theme--light" style="font-size: 18px;"></i></th>
            <th role="columnheader" scope="col" aria-label="Free MO 2020: Not sorted. Activate to sort ascending." aria-sort="none" class="text-start px-1 sortable"><span>Free MO 2020</span><i aria-hidden="true" class="v-icon notranslate v-data-table-header__icon mdi mdi-arrow-up theme--light" style="font-size: 18px;"></i></th>
            <th role="columnheader" scope="col" aria-label="Activity: Not sorted. Activate to sort ascending." aria-sort="none" class="text-start px-1 sortable"><span>Activity</span><i aria-hidden="true" class="v-icon notranslate v-data-table-header__icon mdi mdi-arrow-up theme--light" style="font-size: 18px;"></i></th>
            <th role="columnheader" scope="col" aria-label="CMS Status: Not sorted. Activate to sort ascending." aria-sort="none" class="text-start px-1 sortable"><span>CMS Status</span><i aria-hidden="true" class="v-icon notranslate v-data-table-header__icon mdi mdi-arrow-up theme--light" style="font-size: 18px;"></i></th>
            <th role="columnheader" scope="col" aria-label="Author: Not sorted. Activate to sort ascending." aria-sort="none" class="text-start px-1 sortable"><span>Author</span><i aria-hidden="true" class="v-icon notranslate v-data-table-header__icon mdi mdi-arrow-up theme--light" style="font-size: 18px;"></i></th>
            <th role="columnheader" scope="col" aria-label="Flag: Not sorted. Activate to sort ascending." aria-sort="none" class="text-start px-1 sortable"><span>Flag</span><i aria-hidden="true" class="v-icon notranslate v-data-table-header__icon mdi mdi-arrow-up theme--light" style="font-size: 18px;"></i></th>
            <th role="columnheader" scope="col" aria-label="Actions" class="text-start px-1"><span>Actions</span></th>
          </tr>
        </thead>
        <tbody>
          <tr class="">
            <td class="text-start">1</td>
            <td class="text-start">Moore</td>
            <td class="text-start">Ralph</td>
            <td class="text-start">CERN</td>
            <td class="text-start">YES</td>
            <td class="text-start">YES</td>
            <td class="text-start">Physist</td>
            <td class="text-start">CMS</td>
            <td class="text-start">NO</td>
            <td class="text-start">---</td>
            <td class="text-start"><button type="button" class="v-btn v-btn--block v-btn--contained theme--light v-size--default error"><span class="v-btn__content">
                        Freeze
                    </span></button></td>
          </tr>
          <tr class="">
            <td class="text-start">2</td>
            <td class="text-start">Sanford</td>
            <td class="text-start">Brian</td>
            <td class="text-start">UCLA</td>
            <td class="text-start">NO</td>
            <td class="text-start">YES</td>
            <td class="text-start">Mountain Climber</td>
            <td class="text-start">CMS</td>
            <td class="text-start">YES</td>
            <td class="text-start">MISC_authorno</td>
            <td class="text-start"><button type="button" class="v-btn v-btn--block v-btn--contained theme--light v-size--default success"><span class="v-btn__content">
                        Unfreeze
                    </span></button></td>
          </tr>
          <tr class="">
            <td class="text-start">3</td>
            <td class="text-start">Kris</td>
            <td class="text-start">Greta</td>
            <td class="text-start">CERN</td>
            <td class="text-start">NO</td>
            <td class="text-start">NO</td>
            <td class="text-start">Juggler</td>
            <td class="text-start">CMS</td>
            <td class="text-start">NO</td>
            <td class="text-start">---</td>
            <td class="text-start"><button type="button" class="v-btn v-btn--block v-btn--contained theme--light v-size--default error"><span class="v-btn__content">
                        Freeze
                    </span></button></td>
          </tr>
        </tbody>
      </table>
    </div>
    <tr>
      <td class="px-1">
        <div class="v-input theme--light v-text-field">
          <div class="v-input__control">
            <div class="v-input__slot">
              <div class="v-text-field__slot"><label for="input-47" class="v-label theme--light" style="left: 0px; position: absolute;">CMD ID</label><input id="input-47" type="text"></div>
              <div class="v-input__append-inner"><i aria-hidden="true" class="v-icon notranslate material-icons theme--light">search</i></div>
            </div>
            <div class="v-text-field__details">
              <div class="v-messages theme--light">
                <transition-group-stub tag="div" name="message-transition" class="v-messages__wrapper"></transition-group-stub>
              </div>
            </div>
          </div>
        </div>
      </td>
      <td class="px-1">
        <div class="v-input theme--light v-text-field">
          <div class="v-input__control">
            <div class="v-input__slot">
              <div class="v-text-field__slot"><label for="input-50" class="v-label theme--light" style="left: 0px; position: absolute;">Last Name</label><input id="input-50" type="text"></div>
              <div class="v-input__append-inner"><i aria-hidden="true" class="v-icon notranslate material-icons theme--light">search</i></div>
            </div>
            <div class="v-text-field__details">
              <div class="v-messages theme--light">
                <transition-group-stub tag="div" name="message-transition" class="v-messages__wrapper"></transition-group-stub>
              </div>
            </div>
          </div>
        </div>
      </td>
      <td class="px-1">
        <div class="v-input theme--light v-text-field">
          <div class="v-input__control">
            <div class="v-input__slot">
              <div class="v-text-field__slot"><label for="input-53" class="v-label theme--light" style="left: 0px; position: absolute;">First Name</label><input id="input-53" type="text"></div>
              <div class="v-input__append-inner"><i aria-hidden="true" class="v-icon notranslate material-icons theme--light">search</i></div>
            </div>
            <div class="v-text-field__details">
              <div class="v-messages theme--light">
                <transition-group-stub tag="div" name="message-transition" class="v-messages__wrapper"></transition-group-stub>
              </div>
            </div>
          </div>
        </div>
      </td>
      <td class="px-1">
        <div class="v-input theme--light v-text-field">
          <div class="v-input__control">
            <div class="v-input__slot">
              <div class="v-text-field__slot"><label for="input-56" class="v-label theme--light" style="left: 0px; position: absolute;">Institue</label><input id="input-56" type="text"></div>
              <div class="v-input__append-inner"><i aria-hidden="true" class="v-icon notranslate material-icons theme--light">search</i></div>
            </div>
            <div class="v-text-field__details">
              <div class="v-messages theme--light">
                <transition-group-stub tag="div" name="message-transition" class="v-messages__wrapper"></transition-group-stub>
              </div>
            </div>
          </div>
        </div>
      </td>
      <td class="px-1">
        <div class="v-input theme--light v-text-field">
          <div class="v-input__control">
            <div class="v-input__slot">
              <div class="v-text-field__slot"><label for="input-59" class="v-label theme--light" style="left: 0px; position: absolute;">MO 2020</label><input id="input-59" type="text"></div>
              <div class="v-input__append-inner"><i aria-hidden="true" class="v-icon notranslate material-icons theme--light">search</i></div>
            </div>
            <div class="v-text-field__details">
              <div class="v-messages theme--light">
                <transition-group-stub tag="div" name="message-transition" class="v-messages__wrapper"></transition-group-stub>
              </div>
            </div>
          </div>
        </div>
      </td>
      <td class="px-1">
        <div class="v-input theme--light v-text-field">
          <div class="v-input__control">
            <div class="v-input__slot">
              <div class="v-text-field__slot"><label for="input-62" class="v-label theme--light" style="left: 0px; position: absolute;">Free MO 2020</label><input id="input-62" type="text"></div>
              <div class="v-input__append-inner"><i aria-hidden="true" class="v-icon notranslate material-icons theme--light">search</i></div>
            </div>
            <div class="v-text-field__details">
              <div class="v-messages theme--light">
                <transition-group-stub tag="div" name="message-transition" class="v-messages__wrapper"></transition-group-stub>
              </div>
            </div>
          </div>
        </div>
      </td>
      <td class="px-1">
        <div class="v-input theme--light v-text-field">
          <div class="v-input__control">
            <div class="v-input__slot">
              <div class="v-text-field__slot"><label for="input-65" class="v-label theme--light" style="left: 0px; position: absolute;">Activity</label><input id="input-65" type="text"></div>
              <div class="v-input__append-inner"><i aria-hidden="true" class="v-icon notranslate material-icons theme--light">search</i></div>
            </div>
            <div class="v-text-field__details">
              <div class="v-messages theme--light">
                <transition-group-stub tag="div" name="message-transition" class="v-messages__wrapper"></transition-group-stub>
              </div>
            </div>
          </div>
        </div>
      </td>
      <td class="px-1">
        <div class="v-input theme--light v-text-field">
          <div class="v-input__control">
            <div class="v-input__slot">
              <div class="v-text-field__slot"><label for="input-68" class="v-label theme--light" style="left: 0px; position: absolute;">CMS Status</label><input id="input-68" type="text"></div>
              <div class="v-input__append-inner"><i aria-hidden="true" class="v-icon notranslate material-icons theme--light">search</i></div>
            </div>
            <div class="v-text-field__details">
              <div class="v-messages theme--light">
                <transition-group-stub tag="div" name="message-transition" class="v-messages__wrapper"></transition-group-stub>
              </div>
            </div>
          </div>
        </div>
      </td>
      <td class="px-1">
        <div class="v-input theme--light v-text-field">
          <div class="v-input__control">
            <div class="v-input__slot">
              <div class="v-text-field__slot"><label for="input-71" class="v-label theme--light" style="left: 0px; position: absolute;">Author</label><input id="input-71" type="text"></div>
              <div class="v-input__append-inner"><i aria-hidden="true" class="v-icon notranslate material-icons theme--light">search</i></div>
            </div>
            <div class="v-text-field__details">
              <div class="v-messages theme--light">
                <transition-group-stub tag="div" name="message-transition" class="v-messages__wrapper"></transition-group-stub>
              </div>
            </div>
          </div>
        </div>
      </td>
      <td class="px-1">
        <div class="v-input theme--light v-text-field">
          <div class="v-input__control">
            <div class="v-input__slot">
              <div class="v-text-field__slot"><label for="input-74" class="v-label theme--light" style="left: 0px; position: absolute;">Flag</label><input id="input-74" type="text"></div>
              <div class="v-input__append-inner"><i aria-hidden="true" class="v-icon notranslate material-icons theme--light">search</i></div>
            </div>
            <div class="v-text-field__details">
              <div class="v-messages theme--light">
                <transition-group-stub tag="div" name="message-transition" class="v-messages__wrapper"></transition-group-stub>
              </div>
            </div>
          </div>
        </div>
      </td>
      <td class="px-1">
        <div class="v-input theme--light v-text-field">
          <div class="v-input__control">
            <div class="v-input__slot">
              <div class="v-text-field__slot"><label for="input-77" class="v-label theme--light" style="left: 0px; position: absolute;">Actions</label><input id="input-77" type="text"></div>
              <div class="v-input__append-inner"><i aria-hidden="true" class="v-icon notranslate material-icons theme--light">search</i></div>
            </div>
            <div class="v-text-field__details">
              <div class="v-messages theme--light">
                <transition-group-stub tag="div" name="message-transition" class="v-messages__wrapper"></transition-group-stub>
              </div>
            </div>
          </div>
        </div>
      </td>
    </tr>
    <div class="v-data-footer">
      <div class="v-data-footer__select">Rows per page:<div class="v-input v-input--hide-details v-input--is-label-active v-input--is-dirty theme--light v-text-field v-select">
          <div class="v-input__control">
            <div role="button" aria-haspopup="listbox" aria-expanded="false" aria-owns="list-81" class="v-input__slot">
              <div class="v-select__slot">
                <div class="v-select__selections">
                  <div class="v-select__selection v-select__selection--comma">25</div><input aria-label="$vuetify.dataTable.itemsPerPageText" id="input-81" readonly="readonly" type="text" aria-readonly="false" autocomplete="off">
                </div>
                <div class="v-input__append-inner">
                  <div class="v-input__icon v-input__icon--append"><i aria-hidden="true" class="v-icon notranslate mdi mdi-menu-down theme--light"></i></div>
                </div><input type="hidden" value="25">
              </div>
              <div class="v-menu">
                <!---->
              </div>
            </div>
          </div>
        </div>
      </div>
      <div class="v-data-footer__pagination">1-3 of 3</div>
      <div class="v-data-footer__icons-before"><button type="button" disabled="disabled" class="v-btn v-btn--disabled v-btn--flat v-btn--icon v-btn--round v-btn--text theme--light v-size--default" aria-label="Previous page"><span class="v-btn__content"><i aria-hidden="true" class="v-icon notranslate mdi mdi-chevron-left theme--light"></i></span></button></div>
      <div class="v-data-footer__icons-after"><button type="button" disabled="disabled" class="v-btn v-btn--disabled v-btn--flat v-btn--icon v-btn--round v-btn--text theme--light v-size--default" aria-label="Next page"><span class="v-btn__content"><i aria-hidden="true" class="v-icon notranslate mdi mdi-chevron-right theme--light"></i></span></button></div>
    </div>
  </div>
  <div class="export-button-row"><button type="button" class="v-btn v-btn--contained theme--light v-size--default" style="margin-right: 12px;"><span class="v-btn__content">Generate XLSX spreadsheet</span></button> <span><button type="button" class="v-btn v-btn--contained theme--light v-size--default"><span class="v-btn__content">Generate e-groups import file</span></button>
    <!----></span>
  </div>
</div>
`;
